CMPINF 2130 Summer 2021 - Week 08
…
## 
## Correlation method: 'pearson'
## Missing treated using: 'pairwise.complete.obs'
## 
## 
## Correlation method: 'pearson'
## Missing treated using: 'pairwise.complete.obs'
## 
## 
## Correlation method: 'pearson'
## Missing treated using: 'pairwise.complete.obs'

## # A tibble: 48 x 4
## # Groups:   Species [3]
##    Species x            y                 r
##    <fct>   <chr>        <chr>         <dbl>
##  1 setosa  Sepal.Length Sepal.Length NA    
##  2 setosa  Sepal.Length Sepal.Width   0.743
##  3 setosa  Sepal.Length Petal.Length  0.267
##  4 setosa  Sepal.Length Petal.Width   0.278
##  5 setosa  Sepal.Width  Sepal.Length  0.743
##  6 setosa  Sepal.Width  Sepal.Width  NA    
##  7 setosa  Sepal.Width  Petal.Length  0.178
##  8 setosa  Sepal.Width  Petal.Width   0.233
##  9 setosa  Petal.Length Sepal.Length  0.267
## 10 setosa  Petal.Length Sepal.Width   0.178
## # ... with 38 more rows
…
