CMPINF 2130 Summer 2021 - Extra examples
…
misty_df %>% glimpse()

## Rows: 41
## Columns: 1
## $ text <chr> "Far over the misty mountains cold", "To dungeons deep and cavern~

We saw from the tail() result that the last element and thus last row of misty_df is a blank line. Rather than manually removing that row, let’s programmatically identify it by counting the number of characters in each line. The tibble::rowid_to_column() function is used to add an integer color for the row or line number. The tibble is sorted based on the number of characters in each line.

misty_df %>% 
  tibble::rowid_to_column("line") %>% 
  mutate(num_char = nchar(text)) %>% 
  arrange(num_char)

## # A tibble: 41 x 3
##     line text                               num_char
##    <int> <chr>                                 <int>
##  1    41 ""                                        0
##  2     3 "We must away ere break of day"          29
##  3    13 "On silver necklaces they strung"        31
##  4    19 "We must away, ere break of day,"        31
##  5    39 "We must away, ere break of day,"        31
##  6     2 "To dungeons deep and caverns old"       32
##  7     4 "To seek the pale enchanted gold."       32
##  8     9 "For ancient king and elvish lord"       32
##  9    15 "The dragon-fire, in twisted wire"       32
## 10    18 "To dungeons deep and caverns old"       32
## # ... with 31 more rows
…
Let’s print out the most frequent words, including the set of stop words. As we see below, the most common words are “the” and “and”.

tidy_mtn %>% 
  count(word) %>% 
  arrange(desc(n))

## # A tibble: 145 x 2
##    word        n
##    <chr>   <int>
##  1 the        23
##  2 and        12
##  3 they       10
##  4 of          8
##  5 to          8
##  6 in          6
##  7 beneath     4
##  8 deep        4
##  9 gold        4
## 10 on          4
## # ... with 135 more rows

In contrast, the most frequent words when the stop words are removed are:

tidy_mtn_rm %>% 
  count(word) %>% 
  arrange(desc(n))

## # A tibble: 102 x 2
##    word         n
##    <chr>    <int>
##  1 beneath      4
##  2 deep         4
##  3 gold         4
##  4 break        3
##  5 caverns      3
##  6 day          3
##  7 dungeons     3
##  8 ere          3
##  9 fire         3
## 10 light        3
## # ... with 92 more rows
…
