CMPINF 2130 Summer 2021 - Extra examples
…
The long and lat variables in us48 are longitude and latitude coordinates. These coordinates are associated with positions around the borders of each state. The state name corresponds to the region column. Let’s check the data associated with Pennsylvania.

us48 %>% 
  filter(region == "pennsylvania") %>% 
  tibble::as_tibble()

## # A tibble: 172 x 6
##     long   lat group order region       subregion
##    <dbl> <dbl> <dbl> <int> <chr>        <chr>    
##  1 -79.8  42.3    45 11201 pennsylvania <NA>     
##  2 -79.8  42.0    45 11202 pennsylvania <NA>     
##  3 -79.6  42.0    45 11203 pennsylvania <NA>     
##  4 -79.1  42.0    45 11204 pennsylvania <NA>     
##  5 -78.9  42.0    45 11205 pennsylvania <NA>     
##  6 -78.3  42.0    45 11206 pennsylvania <NA>     
##  7 -78.2  42.0    45 11207 pennsylvania <NA>     
##  8 -77.8  42.0    45 11208 pennsylvania <NA>     
##  9 -77.6  42.0    45 11209 pennsylvania <NA>     
## 10 -77.0  42.0    45 11210 pennsylvania <NA>     
## # ... with 162 more rows

There are 172 rows associated with PA! Each row corresponds to a combination of long and lat. The count() function is used to count the number of long and lat combinations for PA in the code chunk below.

us48 %>% 
  filter(region == "pennsylvania") %>% 
  tibble::as_tibble() %>% 
  count(long, lat) %>% 
  arrange(desc(n))

## # A tibble: 171 x 3
##     long   lat     n
##    <dbl> <dbl> <int>
##  1 -79.8  42.3     2
##  2 -80.5  42.0     1
##  3 -80.5  41.5     1
##  4 -80.5  41.8     1
##  5 -80.5  40.0     1
##  6 -80.5  40.4     1
##  7 -80.5  41.1     1
##  8 -80.5  41.5     1
##  9 -80.5  39.7     1
## 10 -80.5  40.0     1
## # ... with 161 more rows
…
##     playerID birthCountry         name 
##            0           61         1356

A missing in the name column represents we can use the birthCountry as is. An example set of rows is shown below when name is missing.

Master %>% 
  left_join(lahman_link, by = "birthCountry") %>% 
  select(playerID, birthCountry, name) %>% 
  filter(is.na(name)) %>% 
  tibble::as_tibble()

## # A tibble: 1,356 x 3
##    playerID  birthCountry name 
##    <chr>     <chr>        <chr>
##  1 abreubo01 Venezuela    <NA> 
##  2 abreujo02 Cuba         <NA> 
##  3 aceveal01 Mexico       <NA> 
##  4 aceveju01 Mexico       <NA> 
##  5 acostcy01 Mexico       <NA> 
##  6 acosted01 Panama       <NA> 
##  7 acostjo01 Cuba         <NA> 
##  8 acostma01 Panama       <NA> 
##  9 acostme01 Cuba         <NA> 
## 10 acunaro01 Venezuela    <NA> 
## # ... with 1,346 more rows

The name column is mutated and reassigned to the result of an ifelse() function. The ifelse() function is an in-line if-else. A conditional test is provided in the first argument, if that value is TRUE the second argument is returned. Otherwise, the third argument is returned. We can therefore remove many of the missing values for name by setting name equal to birthCountry if name is missing. As shown below, the remaining missing rows for name correspond to those associated with missing birthCountry values.

Master %>% 
  left_join(lahman_link, by = "birthCountry") %>% 
  mutate(name = ifelse(is.na(name), birthCountry, name)) %>% 
  select(playerID, birthCountry, name) %>% 
  filter(is.na(name)) %>% 
  tibble::as_tibble()

## # A tibble: 61 x 3
##    playerID  birthCountry name 
##    <chr>     <chr>        <chr>
##  1 bolan01   <NA>         <NA> 
##  2 booth01   <NA>         <NA> 
##  3 brittji01 <NA>         <NA> 
##  4 brown01   <NA>         <NA> 
##  5 carroch01 <NA>         <NA> 
##  6 caseybi01 <NA>         <NA> 
##  7 connore01 <NA>         <NA> 
##  8 crawfge01 <NA>         <NA> 
##  9 donnepe01 <NA>         <NA> 
## 10 drewda01  <NA>         <NA> 
## # ... with 51 more rows
…
