CMPINF 2130 Summer 2021 - Week 03
…
Grouping

How can we group in R, or more specicially in the tidyverse? We use the group_by() function. To replicate what we did in Pandas we need to use group_by() and the group_map() function. First, let’s just see what the group_by() function does.

iris %>% 
  select(starts_with("Sepal."), Species) %>% 
  group_by(Species)

## # A tibble: 150 x 3
## # Groups:   Species [3]
##    Sepal.Length Sepal.Width Species
##           <dbl>       <dbl> <fct>  
##  1          5.1         3.5 setosa 
##  2          4.9         3   setosa 
##  3          4.7         3.2 setosa 
##  4          4.6         3.1 setosa 
##  5          5           3.6 setosa 
##  6          5.4         3.9 setosa 
##  7          4.6         3.4 setosa 
##  8          5           3.4 setosa 
##  9          4.4         2.9 setosa 
## 10          4.9         3.1 setosa 
## # ... with 140 more rows
…
