CMPINF 2130 Summer 2021 - Week 06
…
One way to check the number of unique values, is with the count().

mpg %>% count(hwy)

## # A tibble: 27 x 2
##      hwy     n
##    <int> <int>
##  1    12     5
##  2    14     2
##  3    15    10
##  4    16     7
##  5    17    31
##  6    18    10
##  7    19    13
##  8    20    11
##  9    21     2
## 10    22     7
## # ... with 17 more rows

Alternatively we could use the distinct() function to only get the unique values.

mpg %>% distinct(hwy)

## # A tibble: 27 x 1
##      hwy
##    <int>
##  1    29
##  2    31
##  3    30
##  4    26
##  5    27
##  6    25
##  7    28
##  8    24
##  9    23
## 10    20
## # ... with 17 more rows
…
