CMPINF 2130 Summer 2021 - Week 05
…
Reorder the x-axis.

The character gets converted to a factor variable behind the scenes. A factor is R’s terminology for a categorical.

mpg %>% 
  mutate(class = as.factor(class)) %>%
  select(class)

## # A tibble: 234 x 1
##    class  
##    <fct>  
##  1 compact
##  2 compact
##  3 compact
##  4 compact
##  5 compact
##  6 compact
##  7 compact
##  8 compact
##  9 compact
## 10 compact
## # ... with 224 more rows
…
Let’s print the first 25 values to the screen.

xdf %>% 
  count(x) %>% 
  arrange(x) %>% 
  head(25)

## # A tibble: 25 x 2
##        x     n
##    <dbl> <int>
##  1 -3.44     1
##  2 -3.44     1
##  3 -3.32     1
##  4 -3.15     1
##  5 -3.14     1
##  6 -3.12     1
##  7 -3.06     1
##  8 -3.03     1
##  9 -2.98     1
## 10 -2.95     1
## # ... with 15 more rows
…
